('C:\\Users\\Lenovo\\PycharmProjects\\docx_proc\\build\\docx_proc\\PYZ-00.pyz',
 [('multiprocessing.popen_fork',
   'C:\\Users\\Lenovo\\AppData\\Local\\Programs\\Python\\Python36\\lib\\multiprocessing\\popen_fork.py',
   'PYMODULE'),
  ('random',
   'C:\\Users\\Lenovo\\AppData\\Local\\Programs\\Python\\Python36\\lib\\random.py',
   'PYMODULE'),
  ('_strptime',
   'C:\\Users\\Lenovo\\AppData\\Local\\Programs\\Python\\Python36\\lib\\_strptime.py',
   'PYMODULE'),
  ('_dummy_thread',
   'C:\\Users\\Lenovo\\AppData\\Local\\Programs\\Python\\Python36\\lib\\_dummy_thread.py',
   'PYMODULE'),
  ('datetime',
   'C:\\Users\\Lenovo\\AppData\\Local\\Programs\\Python\\Python36\\lib\\datetime.py',
   'PYMODULE'),
  ('calendar',
   'C:\\Users\\Lenovo\\AppData\\Local\\Programs\\Python\\Python36\\lib\\calendar.py',
   'PYMODULE'),
  ('argparse',
   'C:\\Users\\Lenovo\\AppData\\Local\\Programs\\Python\\Python36\\lib\\argparse.py',
   'PYMODULE'),
  ('gettext',
   'C:\\Users\\Lenovo\\AppData\\Local\\Programs\\Python\\Python36\\lib\\gettext.py',
   'PYMODULE'),
  ('struct',
   'C:\\Users\\Lenovo\\AppData\\Local\\Programs\\Python\\Python36\\lib\\struct.py',
   'PYMODULE'),
  ('textwrap',
   'C:\\Users\\Lenovo\\AppData\\Local\\Programs\\Python\\Python36\\lib\\textwrap.py',
   'PYMODULE'),
  ('copy',
   'C:\\Users\\Lenovo\\AppData\\Local\\Programs\\Python\\Python36\\lib\\copy.py',
   'PYMODULE'),
  ('bisect',
   'C:\\Users\\Lenovo\\AppData\\Local\\Programs\\Python\\Python36\\lib\\bisect.py',
   'PYMODULE'),
  ('hashlib',
   'C:\\Users\\Lenovo\\AppData\\Local\\Programs\\Python\\Python36\\lib\\hashlib.py',
   'PYMODULE'),
  ('logging',
   'C:\\Users\\Lenovo\\AppData\\Local\\Programs\\Python\\Python36\\lib\\logging\\__init__.py',
   'PYMODULE'),
  ('threading',
   'C:\\Users\\Lenovo\\AppData\\Local\\Programs\\Python\\Python36\\lib\\threading.py',
   'PYMODULE'),
  ('_threading_local',
   'C:\\Users\\Lenovo\\AppData\\Local\\Programs\\Python\\Python36\\lib\\_threading_local.py',
   'PYMODULE'),
  ('contextlib',
   'C:\\Users\\Lenovo\\AppData\\Local\\Programs\\Python\\Python36\\lib\\contextlib.py',
   'PYMODULE'),
  ('multiprocessing.connection',
   'C:\\Users\\Lenovo\\AppData\\Local\\Programs\\Python\\Python36\\lib\\multiprocessing\\connection.py',
   'PYMODULE'),
  ('multiprocessing.resource_sharer',
   'C:\\Users\\Lenovo\\AppData\\Local\\Programs\\Python\\Python36\\lib\\multiprocessing\\resource_sharer.py',
   'PYMODULE'),
  ('multiprocessing.process',
   'C:\\Users\\Lenovo\\AppData\\Local\\Programs\\Python\\Python36\\lib\\multiprocessing\\process.py',
   'PYMODULE'),
  ('selectors',
   'C:\\Users\\Lenovo\\AppData\\Local\\Programs\\Python\\Python36\\lib\\selectors.py',
   'PYMODULE'),
  ('xmlrpc.client',
   'C:\\Users\\Lenovo\\AppData\\Local\\Programs\\Python\\Python36\\lib\\xmlrpc\\client.py',
   'PYMODULE'),
  ('xmlrpc',
   'C:\\Users\\Lenovo\\AppData\\Local\\Programs\\Python\\Python36\\lib\\xmlrpc\\__init__.py',
   'PYMODULE'),
  ('gzip',
   'C:\\Users\\Lenovo\\AppData\\Local\\Programs\\Python\\Python36\\lib\\gzip.py',
   'PYMODULE'),
  ('_compression',
   'C:\\Users\\Lenovo\\AppData\\Local\\Programs\\Python\\Python36\\lib\\_compression.py',
   'PYMODULE'),
  ('xml.parsers.expat',
   'C:\\Users\\Lenovo\\AppData\\Local\\Programs\\Python\\Python36\\lib\\xml\\parsers\\expat.py',
   'PYMODULE'),
  ('xml.parsers',
   'C:\\Users\\Lenovo\\AppData\\Local\\Programs\\Python\\Python36\\lib\\xml\\parsers\\__init__.py',
   'PYMODULE'),
  ('xml',
   'C:\\Users\\Lenovo\\AppData\\Local\\Programs\\Python\\Python36\\lib\\xml\\__init__.py',
   'PYMODULE'),
  ('xml.sax.expatreader',
   'C:\\Users\\Lenovo\\AppData\\Local\\Programs\\Python\\Python36\\lib\\xml\\sax\\expatreader.py',
   'PYMODULE'),
  ('xml.sax.saxutils',
   'C:\\Users\\Lenovo\\AppData\\Local\\Programs\\Python\\Python36\\lib\\xml\\sax\\saxutils.py',
   'PYMODULE'),
  ('urllib.request',
   'C:\\Users\\Lenovo\\AppData\\Local\\Programs\\Python\\Python36\\lib\\urllib\\request.py',
   'PYMODULE'),
  ('fnmatch',
   'C:\\Users\\Lenovo\\AppData\\Local\\Programs\\Python\\Python36\\lib\\fnmatch.py',
   'PYMODULE'),
  ('getpass',
   'C:\\Users\\Lenovo\\AppData\\Local\\Programs\\Python\\Python36\\lib\\getpass.py',
   'PYMODULE'),
  ('nturl2path',
   'C:\\Users\\Lenovo\\AppData\\Local\\Programs\\Python\\Python36\\lib\\nturl2path.py',
   'PYMODULE'),
  ('ftplib',
   'C:\\Users\\Lenovo\\AppData\\Local\\Programs\\Python\\Python36\\lib\\ftplib.py',
   'PYMODULE'),
  ('netrc',
   'C:\\Users\\Lenovo\\AppData\\Local\\Programs\\Python\\Python36\\lib\\netrc.py',
   'PYMODULE'),
  ('stat',
   'C:\\Users\\Lenovo\\AppData\\Local\\Programs\\Python\\Python36\\lib\\stat.py',
   'PYMODULE'),
  ('shlex',
   'C:\\Users\\Lenovo\\AppData\\Local\\Programs\\Python\\Python36\\lib\\shlex.py',
   'PYMODULE'),
  ('mimetypes',
   'C:\\Users\\Lenovo\\AppData\\Local\\Programs\\Python\\Python36\\lib\\mimetypes.py',
   'PYMODULE'),
  ('getopt',
   'C:\\Users\\Lenovo\\AppData\\Local\\Programs\\Python\\Python36\\lib\\getopt.py',
   'PYMODULE'),
  ('email.utils',
   'C:\\Users\\Lenovo\\AppData\\Local\\Programs\\Python\\Python36\\lib\\email\\utils.py',
   'PYMODULE'),
  ('email.charset',
   'C:\\Users\\Lenovo\\AppData\\Local\\Programs\\Python\\Python36\\lib\\email\\charset.py',
   'PYMODULE'),
  ('email.encoders',
   'C:\\Users\\Lenovo\\AppData\\Local\\Programs\\Python\\Python36\\lib\\email\\encoders.py',
   'PYMODULE'),
  ('quopri',
   'C:\\Users\\Lenovo\\AppData\\Local\\Programs\\Python\\Python36\\lib\\quopri.py',
   'PYMODULE'),
  ('email.errors',
   'C:\\Users\\Lenovo\\AppData\\Local\\Programs\\Python\\Python36\\lib\\email\\errors.py',
   'PYMODULE'),
  ('email.quoprimime',
   'C:\\Users\\Lenovo\\AppData\\Local\\Programs\\Python\\Python36\\lib\\email\\quoprimime.py',
   'PYMODULE'),
  ('email.base64mime',
   'C:\\Users\\Lenovo\\AppData\\Local\\Programs\\Python\\Python36\\lib\\email\\base64mime.py',
   'PYMODULE'),
  ('email._parseaddr',
   'C:\\Users\\Lenovo\\AppData\\Local\\Programs\\Python\\Python36\\lib\\email\\_parseaddr.py',
   'PYMODULE'),
  ('http.cookiejar',
   'C:\\Users\\Lenovo\\AppData\\Local\\Programs\\Python\\Python36\\lib\\http\\cookiejar.py',
   'PYMODULE'),
  ('http',
   'C:\\Users\\Lenovo\\AppData\\Local\\Programs\\Python\\Python36\\lib\\http\\__init__.py',
   'PYMODULE'),
  ('dummy_threading',
   'C:\\Users\\Lenovo\\AppData\\Local\\Programs\\Python\\Python36\\lib\\dummy_threading.py',
   'PYMODULE'),
  ('urllib',
   'C:\\Users\\Lenovo\\AppData\\Local\\Programs\\Python\\Python36\\lib\\urllib\\__init__.py',
   'PYMODULE'),
  ('ssl',
   'C:\\Users\\Lenovo\\AppData\\Local\\Programs\\Python\\Python36\\lib\\ssl.py',
   'PYMODULE'),
  ('ipaddress',
   'C:\\Users\\Lenovo\\AppData\\Local\\Programs\\Python\\Python36\\lib\\ipaddress.py',
   'PYMODULE'),
  ('urllib.response',
   'C:\\Users\\Lenovo\\AppData\\Local\\Programs\\Python\\Python36\\lib\\urllib\\response.py',
   'PYMODULE'),
  ('urllib.error',
   'C:\\Users\\Lenovo\\AppData\\Local\\Programs\\Python\\Python36\\lib\\urllib\\error.py',
   'PYMODULE'),
  ('posixpath',
   'C:\\Users\\Lenovo\\AppData\\Local\\Programs\\Python\\Python36\\lib\\posixpath.py',
   'PYMODULE'),
  ('genericpath',
   'C:\\Users\\Lenovo\\AppData\\Local\\Programs\\Python\\Python36\\lib\\genericpath.py',
   'PYMODULE'),
  ('email',
   'C:\\Users\\Lenovo\\AppData\\Local\\Programs\\Python\\Python36\\lib\\email\\__init__.py',
   'PYMODULE'),
  ('email.parser',
   'C:\\Users\\Lenovo\\AppData\\Local\\Programs\\Python\\Python36\\lib\\email\\parser.py',
   'PYMODULE'),
  ('email._policybase',
   'C:\\Users\\Lenovo\\AppData\\Local\\Programs\\Python\\Python36\\lib\\email\\_policybase.py',
   'PYMODULE'),
  ('email.feedparser',
   'C:\\Users\\Lenovo\\AppData\\Local\\Programs\\Python\\Python36\\lib\\email\\feedparser.py',
   'PYMODULE'),
  ('email.message',
   'C:\\Users\\Lenovo\\AppData\\Local\\Programs\\Python\\Python36\\lib\\email\\message.py',
   'PYMODULE'),
  ('email.policy',
   'C:\\Users\\Lenovo\\AppData\\Local\\Programs\\Python\\Python36\\lib\\email\\policy.py',
   'PYMODULE'),
  ('email.contentmanager',
   'C:\\Users\\Lenovo\\AppData\\Local\\Programs\\Python\\Python36\\lib\\email\\contentmanager.py',
   'PYMODULE'),
  ('email.headerregistry',
   'C:\\Users\\Lenovo\\AppData\\Local\\Programs\\Python\\Python36\\lib\\email\\headerregistry.py',
   'PYMODULE'),
  ('email.iterators',
   'C:\\Users\\Lenovo\\AppData\\Local\\Programs\\Python\\Python36\\lib\\email\\iterators.py',
   'PYMODULE'),
  ('email.generator',
   'C:\\Users\\Lenovo\\AppData\\Local\\Programs\\Python\\Python36\\lib\\email\\generator.py',
   'PYMODULE'),
  ('email._encoded_words',
   'C:\\Users\\Lenovo\\AppData\\Local\\Programs\\Python\\Python36\\lib\\email\\_encoded_words.py',
   'PYMODULE'),
  ('uu',
   'C:\\Users\\Lenovo\\AppData\\Local\\Programs\\Python\\Python36\\lib\\uu.py',
   'PYMODULE'),
  ('optparse',
   'C:\\Users\\Lenovo\\AppData\\Local\\Programs\\Python\\Python36\\lib\\optparse.py',
   'PYMODULE'),
  ('email._header_value_parser',
   'C:\\Users\\Lenovo\\AppData\\Local\\Programs\\Python\\Python36\\lib\\email\\_header_value_parser.py',
   'PYMODULE'),
  ('email.header',
   'C:\\Users\\Lenovo\\AppData\\Local\\Programs\\Python\\Python36\\lib\\email\\header.py',
   'PYMODULE'),
  ('xml.sax',
   'C:\\Users\\Lenovo\\AppData\\Local\\Programs\\Python\\Python36\\lib\\xml\\sax\\__init__.py',
   'PYMODULE'),
  ('xml.sax.handler',
   'C:\\Users\\Lenovo\\AppData\\Local\\Programs\\Python\\Python36\\lib\\xml\\sax\\handler.py',
   'PYMODULE'),
  ('xml.sax._exceptions',
   'C:\\Users\\Lenovo\\AppData\\Local\\Programs\\Python\\Python36\\lib\\xml\\sax\\_exceptions.py',
   'PYMODULE'),
  ('xml.sax.xmlreader',
   'C:\\Users\\Lenovo\\AppData\\Local\\Programs\\Python\\Python36\\lib\\xml\\sax\\xmlreader.py',
   'PYMODULE'),
  ('urllib.parse',
   'C:\\Users\\Lenovo\\AppData\\Local\\Programs\\Python\\Python36\\lib\\urllib\\parse.py',
   'PYMODULE'),
  ('http.client',
   'C:\\Users\\Lenovo\\AppData\\Local\\Programs\\Python\\Python36\\lib\\http\\client.py',
   'PYMODULE'),
  ('decimal',
   'C:\\Users\\Lenovo\\AppData\\Local\\Programs\\Python\\Python36\\lib\\decimal.py',
   'PYMODULE'),
  ('_pydecimal',
   'C:\\Users\\Lenovo\\AppData\\Local\\Programs\\Python\\Python36\\lib\\_pydecimal.py',
   'PYMODULE'),
  ('numbers',
   'C:\\Users\\Lenovo\\AppData\\Local\\Programs\\Python\\Python36\\lib\\numbers.py',
   'PYMODULE'),
  ('base64',
   'C:\\Users\\Lenovo\\AppData\\Local\\Programs\\Python\\Python36\\lib\\base64.py',
   'PYMODULE'),
  ('hmac',
   'C:\\Users\\Lenovo\\AppData\\Local\\Programs\\Python\\Python36\\lib\\hmac.py',
   'PYMODULE'),
  ('multiprocessing.context',
   'C:\\Users\\Lenovo\\AppData\\Local\\Programs\\Python\\Python36\\lib\\multiprocessing\\context.py',
   'PYMODULE'),
  ('multiprocessing.popen_forkserver',
   'C:\\Users\\Lenovo\\AppData\\Local\\Programs\\Python\\Python36\\lib\\multiprocessing\\popen_forkserver.py',
   'PYMODULE'),
  ('multiprocessing.popen_spawn_posix',
   'C:\\Users\\Lenovo\\AppData\\Local\\Programs\\Python\\Python36\\lib\\multiprocessing\\popen_spawn_posix.py',
   'PYMODULE'),
  ('multiprocessing.semaphore_tracker',
   'C:\\Users\\Lenovo\\AppData\\Local\\Programs\\Python\\Python36\\lib\\multiprocessing\\semaphore_tracker.py',
   'PYMODULE'),
  ('multiprocessing.forkserver',
   'C:\\Users\\Lenovo\\AppData\\Local\\Programs\\Python\\Python36\\lib\\multiprocessing\\forkserver.py',
   'PYMODULE'),
  ('multiprocessing.sharedctypes',
   'C:\\Users\\Lenovo\\AppData\\Local\\Programs\\Python\\Python36\\lib\\multiprocessing\\sharedctypes.py',
   'PYMODULE'),
  ('multiprocessing.heap',
   'C:\\Users\\Lenovo\\AppData\\Local\\Programs\\Python\\Python36\\lib\\multiprocessing\\heap.py',
   'PYMODULE'),
  ('ctypes',
   'C:\\Users\\Lenovo\\AppData\\Local\\Programs\\Python\\Python36\\lib\\ctypes\\__init__.py',
   'PYMODULE'),
  ('ctypes._endian',
   'C:\\Users\\Lenovo\\AppData\\Local\\Programs\\Python\\Python36\\lib\\ctypes\\_endian.py',
   'PYMODULE'),
  ('multiprocessing.pool',
   'C:\\Users\\Lenovo\\AppData\\Local\\Programs\\Python\\Python36\\lib\\multiprocessing\\pool.py',
   'PYMODULE'),
  ('multiprocessing.dummy',
   'C:\\Users\\Lenovo\\AppData\\Local\\Programs\\Python\\Python36\\lib\\multiprocessing\\dummy\\__init__.py',
   'PYMODULE'),
  ('multiprocessing.dummy.connection',
   'C:\\Users\\Lenovo\\AppData\\Local\\Programs\\Python\\Python36\\lib\\multiprocessing\\dummy\\connection.py',
   'PYMODULE'),
  ('queue',
   'C:\\Users\\Lenovo\\AppData\\Local\\Programs\\Python\\Python36\\lib\\queue.py',
   'PYMODULE'),
  ('multiprocessing.queues',
   'C:\\Users\\Lenovo\\AppData\\Local\\Programs\\Python\\Python36\\lib\\multiprocessing\\queues.py',
   'PYMODULE'),
  ('multiprocessing.synchronize',
   'C:\\Users\\Lenovo\\AppData\\Local\\Programs\\Python\\Python36\\lib\\multiprocessing\\synchronize.py',
   'PYMODULE'),
  ('multiprocessing.managers',
   'C:\\Users\\Lenovo\\AppData\\Local\\Programs\\Python\\Python36\\lib\\multiprocessing\\managers.py',
   'PYMODULE'),
  ('multiprocessing.reduction',
   'C:\\Users\\Lenovo\\AppData\\Local\\Programs\\Python\\Python36\\lib\\multiprocessing\\reduction.py',
   'PYMODULE'),
  ('pickle',
   'C:\\Users\\Lenovo\\AppData\\Local\\Programs\\Python\\Python36\\lib\\pickle.py',
   'PYMODULE'),
  ('pprint',
   'C:\\Users\\Lenovo\\AppData\\Local\\Programs\\Python\\Python36\\lib\\pprint.py',
   'PYMODULE'),
  ('doctest',
   'C:\\Users\\Lenovo\\AppData\\Local\\Programs\\Python\\Python36\\lib\\doctest.py',
   'PYMODULE'),
  ('unittest',
   'C:\\Users\\Lenovo\\AppData\\Local\\Programs\\Python\\Python36\\lib\\unittest\\__init__.py',
   'PYMODULE'),
  ('ntpath',
   'C:\\Users\\Lenovo\\AppData\\Local\\Programs\\Python\\Python36\\lib\\ntpath.py',
   'PYMODULE'),
  ('unittest.signals',
   'C:\\Users\\Lenovo\\AppData\\Local\\Programs\\Python\\Python36\\lib\\unittest\\signals.py',
   'PYMODULE'),
  ('unittest.main',
   'C:\\Users\\Lenovo\\AppData\\Local\\Programs\\Python\\Python36\\lib\\unittest\\main.py',
   'PYMODULE'),
  ('unittest.runner',
   'C:\\Users\\Lenovo\\AppData\\Local\\Programs\\Python\\Python36\\lib\\unittest\\runner.py',
   'PYMODULE'),
  ('unittest.loader',
   'C:\\Users\\Lenovo\\AppData\\Local\\Programs\\Python\\Python36\\lib\\unittest\\loader.py',
   'PYMODULE'),
  ('unittest.suite',
   'C:\\Users\\Lenovo\\AppData\\Local\\Programs\\Python\\Python36\\lib\\unittest\\suite.py',
   'PYMODULE'),
  ('unittest.case',
   'C:\\Users\\Lenovo\\AppData\\Local\\Programs\\Python\\Python36\\lib\\unittest\\case.py',
   'PYMODULE'),
  ('unittest.result',
   'C:\\Users\\Lenovo\\AppData\\Local\\Programs\\Python\\Python36\\lib\\unittest\\result.py',
   'PYMODULE'),
  ('unittest.util',
   'C:\\Users\\Lenovo\\AppData\\Local\\Programs\\Python\\Python36\\lib\\unittest\\util.py',
   'PYMODULE'),
  ('pdb',
   'C:\\Users\\Lenovo\\AppData\\Local\\Programs\\Python\\Python36\\lib\\pdb.py',
   'PYMODULE'),
  ('pydoc',
   'C:\\Users\\Lenovo\\AppData\\Local\\Programs\\Python\\Python36\\lib\\pydoc.py',
   'PYMODULE'),
  ('webbrowser',
   'C:\\Users\\Lenovo\\AppData\\Local\\Programs\\Python\\Python36\\lib\\webbrowser.py',
   'PYMODULE'),
  ('shutil',
   'C:\\Users\\Lenovo\\AppData\\Local\\Programs\\Python\\Python36\\lib\\shutil.py',
   'PYMODULE'),
  ('zipfile',
   'C:\\Users\\Lenovo\\AppData\\Local\\Programs\\Python\\Python36\\lib\\zipfile.py',
   'PYMODULE'),
  ('py_compile',
   'C:\\Users\\Lenovo\\AppData\\Local\\Programs\\Python\\Python36\\lib\\py_compile.py',
   'PYMODULE'),
  ('tarfile',
   'C:\\Users\\Lenovo\\AppData\\Local\\Programs\\Python\\Python36\\lib\\tarfile.py',
   'PYMODULE'),
  ('lzma',
   'C:\\Users\\Lenovo\\AppData\\Local\\Programs\\Python\\Python36\\lib\\lzma.py',
   'PYMODULE'),
  ('bz2',
   'C:\\Users\\Lenovo\\AppData\\Local\\Programs\\Python\\Python36\\lib\\bz2.py',
   'PYMODULE'),
  ('http.server',
   'C:\\Users\\Lenovo\\AppData\\Local\\Programs\\Python\\Python36\\lib\\http\\server.py',
   'PYMODULE'),
  ('socketserver',
   'C:\\Users\\Lenovo\\AppData\\Local\\Programs\\Python\\Python36\\lib\\socketserver.py',
   'PYMODULE'),
  ('html',
   'C:\\Users\\Lenovo\\AppData\\Local\\Programs\\Python\\Python36\\lib\\html\\__init__.py',
   'PYMODULE'),
  ('html.entities',
   'C:\\Users\\Lenovo\\AppData\\Local\\Programs\\Python\\Python36\\lib\\html\\entities.py',
   'PYMODULE'),
  ('pydoc_data.topics',
   'C:\\Users\\Lenovo\\AppData\\Local\\Programs\\Python\\Python36\\lib\\pydoc_data\\topics.py',
   'PYMODULE'),
  ('pydoc_data',
   'C:\\Users\\Lenovo\\AppData\\Local\\Programs\\Python\\Python36\\lib\\pydoc_data\\__init__.py',
   'PYMODULE'),
  ('tty',
   'C:\\Users\\Lenovo\\AppData\\Local\\Programs\\Python\\Python36\\lib\\tty.py',
   'PYMODULE'),
  ('tokenize',
   'C:\\Users\\Lenovo\\AppData\\Local\\Programs\\Python\\Python36\\lib\\tokenize.py',
   'PYMODULE'),
  ('token',
   'C:\\Users\\Lenovo\\AppData\\Local\\Programs\\Python\\Python36\\lib\\token.py',
   'PYMODULE'),
  ('platform',
   'C:\\Users\\Lenovo\\AppData\\Local\\Programs\\Python\\Python36\\lib\\platform.py',
   'PYMODULE'),
  ('plistlib',
   'C:\\Users\\Lenovo\\AppData\\Local\\Programs\\Python\\Python36\\lib\\plistlib.py',
   'PYMODULE'),
  ('pkgutil',
   'C:\\Users\\Lenovo\\AppData\\Local\\Programs\\Python\\Python36\\lib\\pkgutil.py',
   'PYMODULE'),
  ('importlib',
   'C:\\Users\\Lenovo\\AppData\\Local\\Programs\\Python\\Python36\\lib\\importlib\\__init__.py',
   'PYMODULE'),
  ('importlib.abc',
   'C:\\Users\\Lenovo\\AppData\\Local\\Programs\\Python\\Python36\\lib\\importlib\\abc.py',
   'PYMODULE'),
  ('importlib.util',
   'C:\\Users\\Lenovo\\AppData\\Local\\Programs\\Python\\Python36\\lib\\importlib\\util.py',
   'PYMODULE'),
  ('importlib.machinery',
   'C:\\Users\\Lenovo\\AppData\\Local\\Programs\\Python\\Python36\\lib\\importlib\\machinery.py',
   'PYMODULE'),
  ('importlib._bootstrap_external',
   'C:\\Users\\Lenovo\\AppData\\Local\\Programs\\Python\\Python36\\lib\\importlib\\_bootstrap_external.py',
   'PYMODULE'),
  ('importlib._bootstrap',
   'C:\\Users\\Lenovo\\AppData\\Local\\Programs\\Python\\Python36\\lib\\importlib\\_bootstrap.py',
   'PYMODULE'),
  ('code',
   'C:\\Users\\Lenovo\\AppData\\Local\\Programs\\Python\\Python36\\lib\\code.py',
   'PYMODULE'),
  ('codeop',
   'C:\\Users\\Lenovo\\AppData\\Local\\Programs\\Python\\Python36\\lib\\codeop.py',
   'PYMODULE'),
  ('dis',
   'C:\\Users\\Lenovo\\AppData\\Local\\Programs\\Python\\Python36\\lib\\dis.py',
   'PYMODULE'),
  ('opcode',
   'C:\\Users\\Lenovo\\AppData\\Local\\Programs\\Python\\Python36\\lib\\opcode.py',
   'PYMODULE'),
  ('bdb',
   'C:\\Users\\Lenovo\\AppData\\Local\\Programs\\Python\\Python36\\lib\\bdb.py',
   'PYMODULE'),
  ('cmd',
   'C:\\Users\\Lenovo\\AppData\\Local\\Programs\\Python\\Python36\\lib\\cmd.py',
   'PYMODULE'),
  ('inspect',
   'C:\\Users\\Lenovo\\AppData\\Local\\Programs\\Python\\Python36\\lib\\inspect.py',
   'PYMODULE'),
  ('ast',
   'C:\\Users\\Lenovo\\AppData\\Local\\Programs\\Python\\Python36\\lib\\ast.py',
   'PYMODULE'),
  ('difflib',
   'C:\\Users\\Lenovo\\AppData\\Local\\Programs\\Python\\Python36\\lib\\difflib.py',
   'PYMODULE'),
  ('__future__',
   'C:\\Users\\Lenovo\\AppData\\Local\\Programs\\Python\\Python36\\lib\\__future__.py',
   'PYMODULE'),
  ('_compat_pickle',
   'C:\\Users\\Lenovo\\AppData\\Local\\Programs\\Python\\Python36\\lib\\_compat_pickle.py',
   'PYMODULE'),
  ('tempfile',
   'C:\\Users\\Lenovo\\AppData\\Local\\Programs\\Python\\Python36\\lib\\tempfile.py',
   'PYMODULE'),
  ('socket',
   'C:\\Users\\Lenovo\\AppData\\Local\\Programs\\Python\\Python36\\lib\\socket.py',
   'PYMODULE'),
  ('multiprocessing.util',
   'C:\\Users\\Lenovo\\AppData\\Local\\Programs\\Python\\Python36\\lib\\multiprocessing\\util.py',
   'PYMODULE'),
  ('signal',
   'C:\\Users\\Lenovo\\AppData\\Local\\Programs\\Python\\Python36\\lib\\signal.py',
   'PYMODULE'),
  ('multiprocessing.popen_spawn_win32',
   'C:\\Users\\Lenovo\\AppData\\Local\\Programs\\Python\\Python36\\lib\\multiprocessing\\popen_spawn_win32.py',
   'PYMODULE'),
  ('subprocess',
   'C:\\Users\\Lenovo\\AppData\\Local\\Programs\\Python\\Python36\\lib\\subprocess.py',
   'PYMODULE'),
  ('multiprocessing.spawn',
   'C:\\Users\\Lenovo\\AppData\\Local\\Programs\\Python\\Python36\\lib\\multiprocessing\\spawn.py',
   'PYMODULE'),
  ('runpy',
   'C:\\Users\\Lenovo\\AppData\\Local\\Programs\\Python\\Python36\\lib\\runpy.py',
   'PYMODULE'),
  ('multiprocessing',
   'C:\\Users\\Lenovo\\AppData\\Local\\Programs\\Python\\Python36\\lib\\multiprocessing\\__init__.py',
   'PYMODULE'),
  ('win32com',
   'c:\\users\\lenovo\\pycharmprojects\\docx_proc\\venv-win\\lib\\site-packages\\win32com\\__init__.py',
   'PYMODULE'),
  ('win32com.server.util',
   'c:\\users\\lenovo\\pycharmprojects\\docx_proc\\venv-win\\lib\\site-packages\\win32com\\server\\util.py',
   'PYMODULE'),
  ('win32com.server.dispatcher',
   'c:\\users\\lenovo\\pycharmprojects\\docx_proc\\venv-win\\lib\\site-packages\\win32com\\server\\dispatcher.py',
   'PYMODULE'),
  ('win32traceutil',
   'c:\\users\\lenovo\\pycharmprojects\\docx_proc\\venv-win\\lib\\site-packages\\win32\\lib\\win32traceutil.py',
   'PYMODULE'),
  ('win32com.util',
   'c:\\users\\lenovo\\pycharmprojects\\docx_proc\\venv-win\\lib\\site-packages\\win32com\\util.py',
   'PYMODULE'),
  ('win32con',
   'c:\\users\\lenovo\\pycharmprojects\\docx_proc\\venv-win\\lib\\site-packages\\win32\\lib\\win32con.py',
   'PYMODULE'),
  ('win32com.server.exception',
   'c:\\users\\lenovo\\pycharmprojects\\docx_proc\\venv-win\\lib\\site-packages\\win32com\\server\\exception.py',
   'PYMODULE'),
  ('winerror',
   'c:\\users\\lenovo\\pycharmprojects\\docx_proc\\venv-win\\lib\\site-packages\\win32\\lib\\winerror.py',
   'PYMODULE'),
  ('win32com.server.policy',
   'c:\\users\\lenovo\\pycharmprojects\\docx_proc\\venv-win\\lib\\site-packages\\win32com\\server\\policy.py',
   'PYMODULE'),
  ('win32com.client',
   'c:\\users\\lenovo\\pycharmprojects\\docx_proc\\venv-win\\lib\\site-packages\\win32com\\client\\__init__.py',
   'PYMODULE'),
  ('win32com.client.makepy',
   'c:\\users\\lenovo\\pycharmprojects\\docx_proc\\venv-win\\lib\\site-packages\\win32com\\client\\makepy.py',
   'PYMODULE'),
  ('pywin.dialogs.status',
   'c:\\users\\lenovo\\pycharmprojects\\docx_proc\\venv-win\\lib\\site-packages\\Pythonwin\\pywin\\dialogs\\status.py',
   'PYMODULE'),
  ('pywin.mfc.thread',
   'c:\\users\\lenovo\\pycharmprojects\\docx_proc\\venv-win\\lib\\site-packages\\Pythonwin\\pywin\\mfc\\thread.py',
   'PYMODULE'),
  ('pywin.mfc.object',
   'c:\\users\\lenovo\\pycharmprojects\\docx_proc\\venv-win\\lib\\site-packages\\Pythonwin\\pywin\\mfc\\object.py',
   'PYMODULE'),
  ('pywin.mfc.dialog',
   'c:\\users\\lenovo\\pycharmprojects\\docx_proc\\venv-win\\lib\\site-packages\\Pythonwin\\pywin\\mfc\\dialog.py',
   'PYMODULE'),
  ('pywin.mfc.window',
   'c:\\users\\lenovo\\pycharmprojects\\docx_proc\\venv-win\\lib\\site-packages\\Pythonwin\\pywin\\mfc\\window.py',
   'PYMODULE'),
  ('pywin.mfc',
   'c:\\users\\lenovo\\pycharmprojects\\docx_proc\\venv-win\\lib\\site-packages\\Pythonwin\\pywin\\mfc\\__init__.py',
   'PYMODULE'),
  ('pywin.dialogs',
   'c:\\users\\lenovo\\pycharmprojects\\docx_proc\\venv-win\\lib\\site-packages\\Pythonwin\\pywin\\dialogs\\__init__.py',
   'PYMODULE'),
  ('pywin',
   'c:\\users\\lenovo\\pycharmprojects\\docx_proc\\venv-win\\lib\\site-packages\\Pythonwin\\pywin\\__init__.py',
   'PYMODULE'),
  ('win32com.client.gencache',
   'c:\\users\\lenovo\\pycharmprojects\\docx_proc\\venv-win\\lib\\site-packages\\win32com\\client\\gencache.py',
   'PYMODULE'),
  ('win32com.client.selecttlb',
   'c:\\users\\lenovo\\pycharmprojects\\docx_proc\\venv-win\\lib\\site-packages\\win32com\\client\\selecttlb.py',
   'PYMODULE'),
  ('pywin.dialogs.list',
   'c:\\users\\lenovo\\pycharmprojects\\docx_proc\\venv-win\\lib\\site-packages\\Pythonwin\\pywin\\dialogs\\list.py',
   'PYMODULE'),
  ('commctrl',
   'c:\\users\\lenovo\\pycharmprojects\\docx_proc\\venv-win\\lib\\site-packages\\win32\\lib\\commctrl.py',
   'PYMODULE'),
  ('win32com.client.genpy',
   'c:\\users\\lenovo\\pycharmprojects\\docx_proc\\venv-win\\lib\\site-packages\\win32com\\client\\genpy.py',
   'PYMODULE'),
  ('win32com.client.CLSIDToClass',
   'c:\\users\\lenovo\\pycharmprojects\\docx_proc\\venv-win\\lib\\site-packages\\win32com\\client\\CLSIDToClass.py',
   'PYMODULE'),
  ('win32com.client.dynamic',
   'c:\\users\\lenovo\\pycharmprojects\\docx_proc\\venv-win\\lib\\site-packages\\win32com\\client\\dynamic.py',
   'PYMODULE'),
  ('win32com.client.build',
   'c:\\users\\lenovo\\pycharmprojects\\docx_proc\\venv-win\\lib\\site-packages\\win32com\\client\\build.py',
   'PYMODULE'),
  ('pywintypes',
   'c:\\users\\lenovo\\pycharmprojects\\docx_proc\\venv-win\\lib\\site-packages\\win32\\lib\\pywintypes.py',
   'PYMODULE'),
  ('distutils.sysconfig',
   'C:\\Users\\Lenovo\\AppData\\Local\\Programs\\Python\\Python36\\lib\\distutils\\sysconfig.py',
   'PYMODULE'),
  ('distutils',
   'C:\\Users\\Lenovo\\AppData\\Local\\Programs\\Python\\Python36\\lib\\distutils\\__init__.py',
   'PYMODULE'),
  ('distutils.log',
   'C:\\Users\\Lenovo\\AppData\\Local\\Programs\\Python\\Python36\\lib\\distutils\\log.py',
   'PYMODULE'),
  ('distutils.text_file',
   'C:\\Users\\Lenovo\\AppData\\Local\\Programs\\Python\\Python36\\lib\\distutils\\text_file.py',
   'PYMODULE'),
  ('_osx_support',
   'C:\\Users\\Lenovo\\AppData\\Local\\Programs\\Python\\Python36\\lib\\_osx_support.py',
   'PYMODULE'),
  ('distutils.errors',
   'C:\\Users\\Lenovo\\AppData\\Local\\Programs\\Python\\Python36\\lib\\distutils\\errors.py',
   'PYMODULE'),
  ('win32com.server',
   'c:\\users\\lenovo\\pycharmprojects\\docx_proc\\venv-win\\lib\\site-packages\\win32com\\server\\__init__.py',
   'PYMODULE'),
  ('win32com.universal',
   'c:\\users\\lenovo\\pycharmprojects\\docx_proc\\venv-win\\lib\\site-packages\\win32com\\universal.py',
   'PYMODULE'),
  ('win32com.client.util',
   'c:\\users\\lenovo\\pycharmprojects\\docx_proc\\venv-win\\lib\\site-packages\\win32com\\client\\util.py',
   'PYMODULE'),
  ('imp',
   'C:\\Users\\Lenovo\\AppData\\Local\\Programs\\Python\\Python36\\lib\\imp.py',
   'PYMODULE'),
  ('pythoncom',
   'c:\\users\\lenovo\\pycharmprojects\\docx_proc\\venv-win\\lib\\site-packages\\pythoncom.py',
   'PYMODULE'),
  ('pkg_resources',
   'c:\\users\\lenovo\\pycharmprojects\\docx_proc\\venv-win\\lib\\site-packages\\pkg_resources\\__init__.py',
   'PYMODULE'),
  ('pkg_resources._vendor.packaging.__about__',
   'c:\\users\\lenovo\\pycharmprojects\\docx_proc\\venv-win\\lib\\site-packages\\pkg_resources\\_vendor\\packaging\\__about__.py',
   'PYMODULE'),
  ('pkg_resources._vendor',
   'c:\\users\\lenovo\\pycharmprojects\\docx_proc\\venv-win\\lib\\site-packages\\pkg_resources\\_vendor\\__init__.py',
   'PYMODULE'),
  ('pkg_resources._vendor.packaging',
   'c:\\users\\lenovo\\pycharmprojects\\docx_proc\\venv-win\\lib\\site-packages\\pkg_resources\\_vendor\\packaging\\__init__.py',
   'PYMODULE'),
  ('pkg_resources._vendor.appdirs',
   'c:\\users\\lenovo\\pycharmprojects\\docx_proc\\venv-win\\lib\\site-packages\\pkg_resources\\_vendor\\appdirs.py',
   'PYMODULE'),
  ('win32com.shell.shellcon',
   'c:\\users\\lenovo\\pycharmprojects\\docx_proc\\venv-win\\lib\\site-packages\\win32comext\\shell\\shellcon.py',
   'PYMODULE'),
  ('win32com.shell',
   'c:\\users\\lenovo\\pycharmprojects\\docx_proc\\venv-win\\lib\\site-packages\\win32comext\\shell\\__init__.py',
   'PYMODULE'),
  ('pkg_resources._vendor.packaging.tags',
   'c:\\users\\lenovo\\pycharmprojects\\docx_proc\\venv-win\\lib\\site-packages\\pkg_resources\\_vendor\\packaging\\tags.py',
   'PYMODULE'),
  ('distutils.util',
   'C:\\Users\\Lenovo\\AppData\\Local\\Programs\\Python\\Python36\\lib\\distutils\\util.py',
   'PYMODULE'),
  ('distutils.filelist',
   'C:\\Users\\Lenovo\\AppData\\Local\\Programs\\Python\\Python36\\lib\\distutils\\filelist.py',
   'PYMODULE'),
  ('distutils.debug',
   'C:\\Users\\Lenovo\\AppData\\Local\\Programs\\Python\\Python36\\lib\\distutils\\debug.py',
   'PYMODULE'),
  ('distutils.file_util',
   'C:\\Users\\Lenovo\\AppData\\Local\\Programs\\Python\\Python36\\lib\\distutils\\file_util.py',
   'PYMODULE'),
  ('distutils.dir_util',
   'C:\\Users\\Lenovo\\AppData\\Local\\Programs\\Python\\Python36\\lib\\distutils\\dir_util.py',
   'PYMODULE'),
  ('lib2to3.refactor',
   'C:\\Users\\Lenovo\\AppData\\Local\\Programs\\Python\\Python36\\lib\\lib2to3\\refactor.py',
   'PYMODULE'),
  ('lib2to3.btm_matcher',
   'C:\\Users\\Lenovo\\AppData\\Local\\Programs\\Python\\Python36\\lib\\lib2to3\\btm_matcher.py',
   'PYMODULE'),
  ('lib2to3.btm_utils',
   'C:\\Users\\Lenovo\\AppData\\Local\\Programs\\Python\\Python36\\lib\\lib2to3\\btm_utils.py',
   'PYMODULE'),
  ('lib2to3.pgen2.grammar',
   'C:\\Users\\Lenovo\\AppData\\Local\\Programs\\Python\\Python36\\lib\\lib2to3\\pgen2\\grammar.py',
   'PYMODULE'),
  ('lib2to3.pygram',
   'C:\\Users\\Lenovo\\AppData\\Local\\Programs\\Python\\Python36\\lib\\lib2to3\\pygram.py',
   'PYMODULE'),
  ('lib2to3.pytree',
   'C:\\Users\\Lenovo\\AppData\\Local\\Programs\\Python\\Python36\\lib\\lib2to3\\pytree.py',
   'PYMODULE'),
  ('lib2to3',
   'C:\\Users\\Lenovo\\AppData\\Local\\Programs\\Python\\Python36\\lib\\lib2to3\\__init__.py',
   'PYMODULE'),
  ('lib2to3.patcomp',
   'C:\\Users\\Lenovo\\AppData\\Local\\Programs\\Python\\Python36\\lib\\lib2to3\\patcomp.py',
   'PYMODULE'),
  ('lib2to3.pgen2.parse',
   'C:\\Users\\Lenovo\\AppData\\Local\\Programs\\Python\\Python36\\lib\\lib2to3\\pgen2\\parse.py',
   'PYMODULE'),
  ('lib2to3.pgen2.literals',
   'C:\\Users\\Lenovo\\AppData\\Local\\Programs\\Python\\Python36\\lib\\lib2to3\\pgen2\\literals.py',
   'PYMODULE'),
  ('lib2to3.fixer_util',
   'C:\\Users\\Lenovo\\AppData\\Local\\Programs\\Python\\Python36\\lib\\lib2to3\\fixer_util.py',
   'PYMODULE'),
  ('lib2to3.pgen2.token',
   'C:\\Users\\Lenovo\\AppData\\Local\\Programs\\Python\\Python36\\lib\\lib2to3\\pgen2\\token.py',
   'PYMODULE'),
  ('lib2to3.pgen2.tokenize',
   'C:\\Users\\Lenovo\\AppData\\Local\\Programs\\Python\\Python36\\lib\\lib2to3\\pgen2\\tokenize.py',
   'PYMODULE'),
  ('lib2to3.pgen2.driver',
   'C:\\Users\\Lenovo\\AppData\\Local\\Programs\\Python\\Python36\\lib\\lib2to3\\pgen2\\driver.py',
   'PYMODULE'),
  ('lib2to3.pgen2.pgen',
   'C:\\Users\\Lenovo\\AppData\\Local\\Programs\\Python\\Python36\\lib\\lib2to3\\pgen2\\pgen.py',
   'PYMODULE'),
  ('lib2to3.pgen2',
   'C:\\Users\\Lenovo\\AppData\\Local\\Programs\\Python\\Python36\\lib\\lib2to3\\pgen2\\__init__.py',
   'PYMODULE'),
  ('distutils.spawn',
   'C:\\Users\\Lenovo\\AppData\\Local\\Programs\\Python\\Python36\\lib\\distutils\\spawn.py',
   'PYMODULE'),
  ('distutils.dep_util',
   'C:\\Users\\Lenovo\\AppData\\Local\\Programs\\Python\\Python36\\lib\\distutils\\dep_util.py',
   'PYMODULE'),
  ('pkg_resources._vendor.packaging.markers',
   'c:\\users\\lenovo\\pycharmprojects\\docx_proc\\venv-win\\lib\\site-packages\\pkg_resources\\_vendor\\packaging\\markers.py',
   'PYMODULE'),
  ('pkg_resources._vendor.packaging.version',
   'c:\\users\\lenovo\\pycharmprojects\\docx_proc\\venv-win\\lib\\site-packages\\pkg_resources\\_vendor\\packaging\\version.py',
   'PYMODULE'),
  ('pkg_resources._vendor.packaging.utils',
   'c:\\users\\lenovo\\pycharmprojects\\docx_proc\\venv-win\\lib\\site-packages\\pkg_resources\\_vendor\\packaging\\utils.py',
   'PYMODULE'),
  ('pkg_resources._vendor.packaging.specifiers',
   'c:\\users\\lenovo\\pycharmprojects\\docx_proc\\venv-win\\lib\\site-packages\\pkg_resources\\_vendor\\packaging\\specifiers.py',
   'PYMODULE'),
  ('pkg_resources._vendor.packaging._compat',
   'c:\\users\\lenovo\\pycharmprojects\\docx_proc\\venv-win\\lib\\site-packages\\pkg_resources\\_vendor\\packaging\\_compat.py',
   'PYMODULE'),
  ('pkg_resources._vendor.packaging.requirements',
   'c:\\users\\lenovo\\pycharmprojects\\docx_proc\\venv-win\\lib\\site-packages\\pkg_resources\\_vendor\\packaging\\requirements.py',
   'PYMODULE'),
  ('pkg_resources._vendor.packaging._structures',
   'c:\\users\\lenovo\\pycharmprojects\\docx_proc\\venv-win\\lib\\site-packages\\pkg_resources\\_vendor\\packaging\\_structures.py',
   'PYMODULE'),
  ('pkg_resources._vendor.six',
   'c:\\users\\lenovo\\pycharmprojects\\docx_proc\\venv-win\\lib\\site-packages\\pkg_resources\\_vendor\\six.py',
   'PYMODULE'),
  ('pkg_resources._vendor.pyparsing',
   'c:\\users\\lenovo\\pycharmprojects\\docx_proc\\venv-win\\lib\\site-packages\\pkg_resources\\_vendor\\pyparsing.py',
   'PYMODULE'),
  ('uuid',
   'C:\\Users\\Lenovo\\AppData\\Local\\Programs\\Python\\Python36\\lib\\uuid.py',
   'PYMODULE'),
  ('ctypes.util',
   'C:\\Users\\Lenovo\\AppData\\Local\\Programs\\Python\\Python36\\lib\\ctypes\\util.py',
   'PYMODULE'),
  ('ctypes.macholib.dyld',
   'C:\\Users\\Lenovo\\AppData\\Local\\Programs\\Python\\Python36\\lib\\ctypes\\macholib\\dyld.py',
   'PYMODULE'),
  ('ctypes.macholib',
   'C:\\Users\\Lenovo\\AppData\\Local\\Programs\\Python\\Python36\\lib\\ctypes\\macholib\\__init__.py',
   'PYMODULE'),
  ('ctypes.macholib.dylib',
   'C:\\Users\\Lenovo\\AppData\\Local\\Programs\\Python\\Python36\\lib\\ctypes\\macholib\\dylib.py',
   'PYMODULE'),
  ('ctypes.macholib.framework',
   'C:\\Users\\Lenovo\\AppData\\Local\\Programs\\Python\\Python36\\lib\\ctypes\\macholib\\framework.py',
   'PYMODULE'),
  ('netbios',
   'c:\\users\\lenovo\\pycharmprojects\\docx_proc\\venv-win\\lib\\site-packages\\win32\\lib\\netbios.py',
   'PYMODULE'),
  ('sysconfig',
   'C:\\Users\\Lenovo\\AppData\\Local\\Programs\\Python\\Python36\\lib\\sysconfig.py',
   'PYMODULE'),
  ('pkg_resources.extern',
   'c:\\users\\lenovo\\pycharmprojects\\docx_proc\\venv-win\\lib\\site-packages\\pkg_resources\\extern\\__init__.py',
   'PYMODULE'),
  ('pycrfsuite._logparser',
   'c:\\users\\lenovo\\pycharmprojects\\docx_proc\\venv-win\\lib\\site-packages\\pycrfsuite\\_logparser.py',
   'PYMODULE'),
  ('pycrfsuite',
   'c:\\users\\lenovo\\pycharmprojects\\docx_proc\\venv-win\\lib\\site-packages\\pycrfsuite\\__init__.py',
   'PYMODULE'),
  ('fractions',
   'C:\\Users\\Lenovo\\AppData\\Local\\Programs\\Python\\Python36\\lib\\fractions.py',
   'PYMODULE'),
  ('pycrfsuite._dumpparser',
   'c:\\users\\lenovo\\pycharmprojects\\docx_proc\\venv-win\\lib\\site-packages\\pycrfsuite\\_dumpparser.py',
   'PYMODULE'),
  ('stringprep',
   'C:\\Users\\Lenovo\\AppData\\Local\\Programs\\Python\\Python36\\lib\\stringprep.py',
   'PYMODULE'),
  ('tracemalloc',
   'C:\\Users\\Lenovo\\AppData\\Local\\Programs\\Python\\Python36\\lib\\tracemalloc.py',
   'PYMODULE'),
  ('glob',
   'C:\\Users\\Lenovo\\AppData\\Local\\Programs\\Python\\Python36\\lib\\glob.py',
   'PYMODULE'),
  ('tkfilebrowser',
   'c:\\users\\lenovo\\pycharmprojects\\docx_proc\\venv-win\\lib\\site-packages\\tkfilebrowser\\__init__.py',
   'PYMODULE'),
  ('tkfilebrowser.functions',
   'c:\\users\\lenovo\\pycharmprojects\\docx_proc\\venv-win\\lib\\site-packages\\tkfilebrowser\\functions.py',
   'PYMODULE'),
  ('tkfilebrowser.constants',
   'c:\\users\\lenovo\\pycharmprojects\\docx_proc\\venv-win\\lib\\site-packages\\tkfilebrowser\\constants.py',
   'PYMODULE'),
  ('babel.dates',
   'c:\\users\\lenovo\\pycharmprojects\\docx_proc\\venv-win\\lib\\site-packages\\babel\\dates.py',
   'PYMODULE'),
  ('babel',
   'c:\\users\\lenovo\\pycharmprojects\\docx_proc\\venv-win\\lib\\site-packages\\babel\\__init__.py',
   'PYMODULE'),
  ('babel.localtime',
   'c:\\users\\lenovo\\pycharmprojects\\docx_proc\\venv-win\\lib\\site-packages\\babel\\localtime\\__init__.py',
   'PYMODULE'),
  ('babel.localtime._unix',
   'c:\\users\\lenovo\\pycharmprojects\\docx_proc\\venv-win\\lib\\site-packages\\babel\\localtime\\_unix.py',
   'PYMODULE'),
  ('babel.localtime._win32',
   'c:\\users\\lenovo\\pycharmprojects\\docx_proc\\venv-win\\lib\\site-packages\\babel\\localtime\\_win32.py',
   'PYMODULE'),
  ('babel.localedata',
   'c:\\users\\lenovo\\pycharmprojects\\docx_proc\\venv-win\\lib\\site-packages\\babel\\localedata.py',
   'PYMODULE'),
  ('babel._compat',
   'c:\\users\\lenovo\\pycharmprojects\\docx_proc\\venv-win\\lib\\site-packages\\babel\\_compat.py',
   'PYMODULE'),
  ('babel.util',
   'c:\\users\\lenovo\\pycharmprojects\\docx_proc\\venv-win\\lib\\site-packages\\babel\\util.py',
   'PYMODULE'),
  ('babel.core',
   'c:\\users\\lenovo\\pycharmprojects\\docx_proc\\venv-win\\lib\\site-packages\\babel\\core.py',
   'PYMODULE'),
  ('babel.plural',
   'c:\\users\\lenovo\\pycharmprojects\\docx_proc\\venv-win\\lib\\site-packages\\babel\\plural.py',
   'PYMODULE'),
  ('pytz',
   'c:\\users\\lenovo\\pycharmprojects\\docx_proc\\venv-win\\lib\\site-packages\\pytz\\__init__.py',
   'PYMODULE'),
  ('pytz.tzfile',
   'c:\\users\\lenovo\\pycharmprojects\\docx_proc\\venv-win\\lib\\site-packages\\pytz\\tzfile.py',
   'PYMODULE'),
  ('pytz.tzinfo',
   'c:\\users\\lenovo\\pycharmprojects\\docx_proc\\venv-win\\lib\\site-packages\\pytz\\tzinfo.py',
   'PYMODULE'),
  ('pytz.lazy',
   'c:\\users\\lenovo\\pycharmprojects\\docx_proc\\venv-win\\lib\\site-packages\\pytz\\lazy.py',
   'PYMODULE'),
  ('pytz.exceptions',
   'c:\\users\\lenovo\\pycharmprojects\\docx_proc\\venv-win\\lib\\site-packages\\pytz\\exceptions.py',
   'PYMODULE'),
  ('babel.numbers',
   'c:\\users\\lenovo\\pycharmprojects\\docx_proc\\venv-win\\lib\\site-packages\\babel\\numbers.py',
   'PYMODULE'),
  ('tkfilebrowser.filebrowser',
   'c:\\users\\lenovo\\pycharmprojects\\docx_proc\\venv-win\\lib\\site-packages\\tkfilebrowser\\filebrowser.py',
   'PYMODULE'),
  ('tkfilebrowser.recent_files',
   'c:\\users\\lenovo\\pycharmprojects\\docx_proc\\venv-win\\lib\\site-packages\\tkfilebrowser\\recent_files.py',
   'PYMODULE'),
  ('tkfilebrowser.tooltip',
   'c:\\users\\lenovo\\pycharmprojects\\docx_proc\\venv-win\\lib\\site-packages\\tkfilebrowser\\tooltip.py',
   'PYMODULE'),
  ('tkfilebrowser.path_button',
   'c:\\users\\lenovo\\pycharmprojects\\docx_proc\\venv-win\\lib\\site-packages\\tkfilebrowser\\path_button.py',
   'PYMODULE'),
  ('tkfilebrowser.autoscrollbar',
   'c:\\users\\lenovo\\pycharmprojects\\docx_proc\\venv-win\\lib\\site-packages\\tkfilebrowser\\autoscrollbar.py',
   'PYMODULE'),
  ('psutil',
   'c:\\users\\lenovo\\pycharmprojects\\docx_proc\\venv-win\\lib\\site-packages\\psutil\\__init__.py',
   'PYMODULE'),
  ('psutil._psaix',
   'c:\\users\\lenovo\\pycharmprojects\\docx_proc\\venv-win\\lib\\site-packages\\psutil\\_psaix.py',
   'PYMODULE'),
  ('psutil._pssunos',
   'c:\\users\\lenovo\\pycharmprojects\\docx_proc\\venv-win\\lib\\site-packages\\psutil\\_pssunos.py',
   'PYMODULE'),
  ('psutil._psbsd',
   'c:\\users\\lenovo\\pycharmprojects\\docx_proc\\venv-win\\lib\\site-packages\\psutil\\_psbsd.py',
   'PYMODULE'),
  ('xml.etree.ElementTree',
   'C:\\Users\\Lenovo\\AppData\\Local\\Programs\\Python\\Python36\\lib\\xml\\etree\\ElementTree.py',
   'PYMODULE'),
  ('xml.etree.cElementTree',
   'C:\\Users\\Lenovo\\AppData\\Local\\Programs\\Python\\Python36\\lib\\xml\\etree\\cElementTree.py',
   'PYMODULE'),
  ('xml.etree.ElementInclude',
   'C:\\Users\\Lenovo\\AppData\\Local\\Programs\\Python\\Python36\\lib\\xml\\etree\\ElementInclude.py',
   'PYMODULE'),
  ('xml.etree.ElementPath',
   'C:\\Users\\Lenovo\\AppData\\Local\\Programs\\Python\\Python36\\lib\\xml\\etree\\ElementPath.py',
   'PYMODULE'),
  ('xml.etree',
   'C:\\Users\\Lenovo\\AppData\\Local\\Programs\\Python\\Python36\\lib\\xml\\etree\\__init__.py',
   'PYMODULE'),
  ('psutil._psosx',
   'c:\\users\\lenovo\\pycharmprojects\\docx_proc\\venv-win\\lib\\site-packages\\psutil\\_psosx.py',
   'PYMODULE'),
  ('psutil._pswindows',
   'c:\\users\\lenovo\\pycharmprojects\\docx_proc\\venv-win\\lib\\site-packages\\psutil\\_pswindows.py',
   'PYMODULE'),
  ('psutil._pslinux',
   'c:\\users\\lenovo\\pycharmprojects\\docx_proc\\venv-win\\lib\\site-packages\\psutil\\_pslinux.py',
   'PYMODULE'),
  ('psutil._psposix',
   'c:\\users\\lenovo\\pycharmprojects\\docx_proc\\venv-win\\lib\\site-packages\\psutil\\_psposix.py',
   'PYMODULE'),
  ('psutil._compat',
   'c:\\users\\lenovo\\pycharmprojects\\docx_proc\\venv-win\\lib\\site-packages\\psutil\\_compat.py',
   'PYMODULE'),
  ('psutil._common',
   'c:\\users\\lenovo\\pycharmprojects\\docx_proc\\venv-win\\lib\\site-packages\\psutil\\_common.py',
   'PYMODULE'),
  ('curses',
   'C:\\Users\\Lenovo\\AppData\\Local\\Programs\\Python\\Python36\\lib\\curses\\__init__.py',
   'PYMODULE'),
  ('curses.has_key',
   'C:\\Users\\Lenovo\\AppData\\Local\\Programs\\Python\\Python36\\lib\\curses\\has_key.py',
   'PYMODULE'),
  ('tkinter.ttk',
   'C:\\Users\\Lenovo\\AppData\\Local\\Programs\\Python\\Python36\\lib\\tkinter\\ttk.py',
   'PYMODULE'),
  ('tkinter.messagebox',
   'C:\\Users\\Lenovo\\AppData\\Local\\Programs\\Python\\Python36\\lib\\tkinter\\messagebox.py',
   'PYMODULE'),
  ('tkinter.commondialog',
   'C:\\Users\\Lenovo\\AppData\\Local\\Programs\\Python\\Python36\\lib\\tkinter\\commondialog.py',
   'PYMODULE'),
  ('tkinter',
   'C:\\Users\\Lenovo\\AppData\\Local\\Programs\\Python\\Python36\\lib\\tkinter\\__init__.py',
   'PYMODULE'),
  ('tkinter.constants',
   'C:\\Users\\Lenovo\\AppData\\Local\\Programs\\Python\\Python36\\lib\\tkinter\\constants.py',
   'PYMODULE'),
  ('rulemma',
   'c:\\users\\lenovo\\pycharmprojects\\docx_proc\\venv-win\\lib\\site-packages\\rulemma\\__init__.py',
   'PYMODULE'),
  ('rulemma.rulemma',
   'c:\\users\\lenovo\\pycharmprojects\\docx_proc\\venv-win\\lib\\site-packages\\rulemma\\rulemma.py',
   'PYMODULE'),
  ('pathlib',
   'C:\\Users\\Lenovo\\AppData\\Local\\Programs\\Python\\Python36\\lib\\pathlib.py',
   'PYMODULE'),
  ('rupostagger',
   'c:\\users\\lenovo\\pycharmprojects\\docx_proc\\venv-win\\lib\\site-packages\\rupostagger\\__init__.py',
   'PYMODULE'),
  ('rupostagger.rupostagger',
   'c:\\users\\lenovo\\pycharmprojects\\docx_proc\\venv-win\\lib\\site-packages\\rupostagger\\rupostagger.py',
   'PYMODULE'),
  ('rusyllab',
   'c:\\users\\lenovo\\pycharmprojects\\docx_proc\\venv-win\\lib\\site-packages\\rusyllab\\__init__.py',
   'PYMODULE'),
  ('rusyllab.rusyllab',
   'c:\\users\\lenovo\\pycharmprojects\\docx_proc\\venv-win\\lib\\site-packages\\rusyllab\\rusyllab.py',
   'PYMODULE'),
  ('ruword2tags',
   'c:\\users\\lenovo\\pycharmprojects\\docx_proc\\venv-win\\lib\\site-packages\\ruword2tags\\__init__.py',
   'PYMODULE'),
  ('ruword2tags.ruflexer',
   'c:\\users\\lenovo\\pycharmprojects\\docx_proc\\venv-win\\lib\\site-packages\\ruword2tags\\ruflexer.py',
   'PYMODULE'),
  ('ruword2tags.ruword2tags',
   'c:\\users\\lenovo\\pycharmprojects\\docx_proc\\venv-win\\lib\\site-packages\\ruword2tags\\ruword2tags.py',
   'PYMODULE'),
  ('sqlite3',
   'C:\\Users\\Lenovo\\AppData\\Local\\Programs\\Python\\Python36\\lib\\sqlite3\\__init__.py',
   'PYMODULE'),
  ('sqlite3.dump',
   'C:\\Users\\Lenovo\\AppData\\Local\\Programs\\Python\\Python36\\lib\\sqlite3\\dump.py',
   'PYMODULE'),
  ('sqlite3.dbapi2',
   'C:\\Users\\Lenovo\\AppData\\Local\\Programs\\Python\\Python36\\lib\\sqlite3\\dbapi2.py',
   'PYMODULE'),
  ('json',
   'C:\\Users\\Lenovo\\AppData\\Local\\Programs\\Python\\Python36\\lib\\json\\__init__.py',
   'PYMODULE'),
  ('json.encoder',
   'C:\\Users\\Lenovo\\AppData\\Local\\Programs\\Python\\Python36\\lib\\json\\encoder.py',
   'PYMODULE'),
  ('json.decoder',
   'C:\\Users\\Lenovo\\AppData\\Local\\Programs\\Python\\Python36\\lib\\json\\decoder.py',
   'PYMODULE'),
  ('json.scanner',
   'C:\\Users\\Lenovo\\AppData\\Local\\Programs\\Python\\Python36\\lib\\json\\scanner.py',
   'PYMODULE'),
  ('rutokenizer',
   'c:\\users\\lenovo\\pycharmprojects\\docx_proc\\venv-win\\lib\\site-packages\\rutokenizer\\__init__.py',
   'PYMODULE'),
  ('rutokenizer.segmenter',
   'c:\\users\\lenovo\\pycharmprojects\\docx_proc\\venv-win\\lib\\site-packages\\rutokenizer\\segmenter.py',
   'PYMODULE'),
  ('rutokenizer.corpustokenizer',
   'c:\\users\\lenovo\\pycharmprojects\\docx_proc\\venv-win\\lib\\site-packages\\rutokenizer\\corpustokenizer.py',
   'PYMODULE'),
  ('rutokenizer.tokenizer',
   'c:\\users\\lenovo\\pycharmprojects\\docx_proc\\venv-win\\lib\\site-packages\\rutokenizer\\tokenizer.py',
   'PYMODULE'),
  ('docx',
   'c:\\users\\lenovo\\pycharmprojects\\docx_proc\\venv-win\\lib\\site-packages\\docx\\__init__.py',
   'PYMODULE'),
  ('docx.parts.styles',
   'c:\\users\\lenovo\\pycharmprojects\\docx_proc\\venv-win\\lib\\site-packages\\docx\\parts\\styles.py',
   'PYMODULE'),
  ('docx.parts',
   'c:\\users\\lenovo\\pycharmprojects\\docx_proc\\venv-win\\lib\\site-packages\\docx\\parts\\__init__.py',
   'PYMODULE'),
  ('docx.styles.styles',
   'c:\\users\\lenovo\\pycharmprojects\\docx_proc\\venv-win\\lib\\site-packages\\docx\\styles\\styles.py',
   'PYMODULE'),
  ('docx.styles.style',
   'c:\\users\\lenovo\\pycharmprojects\\docx_proc\\venv-win\\lib\\site-packages\\docx\\styles\\style.py',
   'PYMODULE'),
  ('docx.text.parfmt',
   'c:\\users\\lenovo\\pycharmprojects\\docx_proc\\venv-win\\lib\\site-packages\\docx\\text\\parfmt.py',
   'PYMODULE'),
  ('docx.text',
   'c:\\users\\lenovo\\pycharmprojects\\docx_proc\\venv-win\\lib\\site-packages\\docx\\text\\__init__.py',
   'PYMODULE'),
  ('docx.text.tabstops',
   'c:\\users\\lenovo\\pycharmprojects\\docx_proc\\venv-win\\lib\\site-packages\\docx\\text\\tabstops.py',
   'PYMODULE'),
  ('docx.enum.text',
   'c:\\users\\lenovo\\pycharmprojects\\docx_proc\\venv-win\\lib\\site-packages\\docx\\enum\\text.py',
   'PYMODULE'),
  ('docx.enum',
   'c:\\users\\lenovo\\pycharmprojects\\docx_proc\\venv-win\\lib\\site-packages\\docx\\enum\\__init__.py',
   'PYMODULE'),
  ('docx.enum.base',
   'c:\\users\\lenovo\\pycharmprojects\\docx_proc\\venv-win\\lib\\site-packages\\docx\\enum\\base.py',
   'PYMODULE'),
  ('docx.exceptions',
   'c:\\users\\lenovo\\pycharmprojects\\docx_proc\\venv-win\\lib\\site-packages\\docx\\exceptions.py',
   'PYMODULE'),
  ('docx.text.font',
   'c:\\users\\lenovo\\pycharmprojects\\docx_proc\\venv-win\\lib\\site-packages\\docx\\text\\font.py',
   'PYMODULE'),
  ('docx.dml.color',
   'c:\\users\\lenovo\\pycharmprojects\\docx_proc\\venv-win\\lib\\site-packages\\docx\\dml\\color.py',
   'PYMODULE'),
  ('docx.dml',
   'c:\\users\\lenovo\\pycharmprojects\\docx_proc\\venv-win\\lib\\site-packages\\docx\\dml\\__init__.py',
   'PYMODULE'),
  ('docx.oxml.simpletypes',
   'c:\\users\\lenovo\\pycharmprojects\\docx_proc\\venv-win\\lib\\site-packages\\docx\\oxml\\simpletypes.py',
   'PYMODULE'),
  ('docx.enum.dml',
   'c:\\users\\lenovo\\pycharmprojects\\docx_proc\\venv-win\\lib\\site-packages\\docx\\enum\\dml.py',
   'PYMODULE'),
  ('docx.enum.style',
   'c:\\users\\lenovo\\pycharmprojects\\docx_proc\\venv-win\\lib\\site-packages\\docx\\enum\\style.py',
   'PYMODULE'),
  ('docx.styles.latent',
   'c:\\users\\lenovo\\pycharmprojects\\docx_proc\\venv-win\\lib\\site-packages\\docx\\styles\\latent.py',
   'PYMODULE'),
  ('docx.styles',
   'c:\\users\\lenovo\\pycharmprojects\\docx_proc\\venv-win\\lib\\site-packages\\docx\\styles\\__init__.py',
   'PYMODULE'),
  ('docx.shared',
   'c:\\users\\lenovo\\pycharmprojects\\docx_proc\\venv-win\\lib\\site-packages\\docx\\shared.py',
   'PYMODULE'),
  ('docx.oxml',
   'c:\\users\\lenovo\\pycharmprojects\\docx_proc\\venv-win\\lib\\site-packages\\docx\\oxml\\__init__.py',
   'PYMODULE'),
  ('docx.oxml.text.run',
   'c:\\users\\lenovo\\pycharmprojects\\docx_proc\\venv-win\\lib\\site-packages\\docx\\oxml\\text\\run.py',
   'PYMODULE'),
  ('docx.oxml.text',
   'c:\\users\\lenovo\\pycharmprojects\\docx_proc\\venv-win\\lib\\site-packages\\docx\\oxml\\text\\__init__.py',
   'PYMODULE'),
  ('docx.oxml.xmlchemy',
   'c:\\users\\lenovo\\pycharmprojects\\docx_proc\\venv-win\\lib\\site-packages\\docx\\oxml\\xmlchemy.py',
   'PYMODULE'),
  ('docx.oxml.exceptions',
   'c:\\users\\lenovo\\pycharmprojects\\docx_proc\\venv-win\\lib\\site-packages\\docx\\oxml\\exceptions.py',
   'PYMODULE'),
  ('docx.compat',
   'c:\\users\\lenovo\\pycharmprojects\\docx_proc\\venv-win\\lib\\site-packages\\docx\\compat.py',
   'PYMODULE'),
  ('docx.oxml.text.parfmt',
   'c:\\users\\lenovo\\pycharmprojects\\docx_proc\\venv-win\\lib\\site-packages\\docx\\oxml\\text\\parfmt.py',
   'PYMODULE'),
  ('docx.oxml.text.paragraph',
   'c:\\users\\lenovo\\pycharmprojects\\docx_proc\\venv-win\\lib\\site-packages\\docx\\oxml\\text\\paragraph.py',
   'PYMODULE'),
  ('docx.oxml.text.font',
   'c:\\users\\lenovo\\pycharmprojects\\docx_proc\\venv-win\\lib\\site-packages\\docx\\oxml\\text\\font.py',
   'PYMODULE'),
  ('docx.oxml.table',
   'c:\\users\\lenovo\\pycharmprojects\\docx_proc\\venv-win\\lib\\site-packages\\docx\\oxml\\table.py',
   'PYMODULE'),
  ('docx.enum.table',
   'c:\\users\\lenovo\\pycharmprojects\\docx_proc\\venv-win\\lib\\site-packages\\docx\\enum\\table.py',
   'PYMODULE'),
  ('docx.oxml.styles',
   'c:\\users\\lenovo\\pycharmprojects\\docx_proc\\venv-win\\lib\\site-packages\\docx\\oxml\\styles.py',
   'PYMODULE'),
  ('docx.oxml.shape',
   'c:\\users\\lenovo\\pycharmprojects\\docx_proc\\venv-win\\lib\\site-packages\\docx\\oxml\\shape.py',
   'PYMODULE'),
  ('docx.oxml.settings',
   'c:\\users\\lenovo\\pycharmprojects\\docx_proc\\venv-win\\lib\\site-packages\\docx\\oxml\\settings.py',
   'PYMODULE'),
  ('docx.oxml.section',
   'c:\\users\\lenovo\\pycharmprojects\\docx_proc\\venv-win\\lib\\site-packages\\docx\\oxml\\section.py',
   'PYMODULE'),
  ('docx.enum.section',
   'c:\\users\\lenovo\\pycharmprojects\\docx_proc\\venv-win\\lib\\site-packages\\docx\\enum\\section.py',
   'PYMODULE'),
  ('docx.oxml.numbering',
   'c:\\users\\lenovo\\pycharmprojects\\docx_proc\\venv-win\\lib\\site-packages\\docx\\oxml\\numbering.py',
   'PYMODULE'),
  ('docx.oxml.document',
   'c:\\users\\lenovo\\pycharmprojects\\docx_proc\\venv-win\\lib\\site-packages\\docx\\oxml\\document.py',
   'PYMODULE'),
  ('docx.oxml.coreprops',
   'c:\\users\\lenovo\\pycharmprojects\\docx_proc\\venv-win\\lib\\site-packages\\docx\\oxml\\coreprops.py',
   'PYMODULE'),
  ('docx.oxml.shared',
   'c:\\users\\lenovo\\pycharmprojects\\docx_proc\\venv-win\\lib\\site-packages\\docx\\oxml\\shared.py',
   'PYMODULE'),
  ('docx.oxml.ns',
   'c:\\users\\lenovo\\pycharmprojects\\docx_proc\\venv-win\\lib\\site-packages\\docx\\oxml\\ns.py',
   'PYMODULE'),
  ('lxml',
   'c:\\users\\lenovo\\pycharmprojects\\docx_proc\\venv-win\\lib\\site-packages\\lxml\\__init__.py',
   'PYMODULE'),
  ('docx.opc.packuri',
   'c:\\users\\lenovo\\pycharmprojects\\docx_proc\\venv-win\\lib\\site-packages\\docx\\opc\\packuri.py',
   'PYMODULE'),
  ('docx.opc',
   'c:\\users\\lenovo\\pycharmprojects\\docx_proc\\venv-win\\lib\\site-packages\\docx\\opc\\__init__.py',
   'PYMODULE'),
  ('docx.parts.settings',
   'c:\\users\\lenovo\\pycharmprojects\\docx_proc\\venv-win\\lib\\site-packages\\docx\\parts\\settings.py',
   'PYMODULE'),
  ('docx.settings',
   'c:\\users\\lenovo\\pycharmprojects\\docx_proc\\venv-win\\lib\\site-packages\\docx\\settings.py',
   'PYMODULE'),
  ('docx.parts.numbering',
   'c:\\users\\lenovo\\pycharmprojects\\docx_proc\\venv-win\\lib\\site-packages\\docx\\parts\\numbering.py',
   'PYMODULE'),
  ('docx.parts.image',
   'c:\\users\\lenovo\\pycharmprojects\\docx_proc\\venv-win\\lib\\site-packages\\docx\\parts\\image.py',
   'PYMODULE'),
  ('docx.image.image',
   'c:\\users\\lenovo\\pycharmprojects\\docx_proc\\venv-win\\lib\\site-packages\\docx\\image\\image.py',
   'PYMODULE'),
  ('docx.image',
   'c:\\users\\lenovo\\pycharmprojects\\docx_proc\\venv-win\\lib\\site-packages\\docx\\image\\__init__.py',
   'PYMODULE'),
  ('docx.image.tiff',
   'c:\\users\\lenovo\\pycharmprojects\\docx_proc\\venv-win\\lib\\site-packages\\docx\\image\\tiff.py',
   'PYMODULE'),
  ('docx.image.helpers',
   'c:\\users\\lenovo\\pycharmprojects\\docx_proc\\venv-win\\lib\\site-packages\\docx\\image\\helpers.py',
   'PYMODULE'),
  ('docx.image.constants',
   'c:\\users\\lenovo\\pycharmprojects\\docx_proc\\venv-win\\lib\\site-packages\\docx\\image\\constants.py',
   'PYMODULE'),
  ('docx.image.png',
   'c:\\users\\lenovo\\pycharmprojects\\docx_proc\\venv-win\\lib\\site-packages\\docx\\image\\png.py',
   'PYMODULE'),
  ('docx.image.jpeg',
   'c:\\users\\lenovo\\pycharmprojects\\docx_proc\\venv-win\\lib\\site-packages\\docx\\image\\jpeg.py',
   'PYMODULE'),
  ('docx.image.gif',
   'c:\\users\\lenovo\\pycharmprojects\\docx_proc\\venv-win\\lib\\site-packages\\docx\\image\\gif.py',
   'PYMODULE'),
  ('docx.image.bmp',
   'c:\\users\\lenovo\\pycharmprojects\\docx_proc\\venv-win\\lib\\site-packages\\docx\\image\\bmp.py',
   'PYMODULE'),
  ('docx.image.exceptions',
   'c:\\users\\lenovo\\pycharmprojects\\docx_proc\\venv-win\\lib\\site-packages\\docx\\image\\exceptions.py',
   'PYMODULE'),
  ('docx.parts.hdrftr',
   'c:\\users\\lenovo\\pycharmprojects\\docx_proc\\venv-win\\lib\\site-packages\\docx\\parts\\hdrftr.py',
   'PYMODULE'),
  ('docx.parts.story',
   'c:\\users\\lenovo\\pycharmprojects\\docx_proc\\venv-win\\lib\\site-packages\\docx\\parts\\story.py',
   'PYMODULE'),
  ('docx.parts.document',
   'c:\\users\\lenovo\\pycharmprojects\\docx_proc\\venv-win\\lib\\site-packages\\docx\\parts\\document.py',
   'PYMODULE'),
  ('docx.shape',
   'c:\\users\\lenovo\\pycharmprojects\\docx_proc\\venv-win\\lib\\site-packages\\docx\\shape.py',
   'PYMODULE'),
  ('docx.enum.shape',
   'c:\\users\\lenovo\\pycharmprojects\\docx_proc\\venv-win\\lib\\site-packages\\docx\\enum\\shape.py',
   'PYMODULE'),
  ('docx.document',
   'c:\\users\\lenovo\\pycharmprojects\\docx_proc\\venv-win\\lib\\site-packages\\docx\\document.py',
   'PYMODULE'),
  ('docx.section',
   'c:\\users\\lenovo\\pycharmprojects\\docx_proc\\venv-win\\lib\\site-packages\\docx\\section.py',
   'PYMODULE'),
  ('docx.blkcntnr',
   'c:\\users\\lenovo\\pycharmprojects\\docx_proc\\venv-win\\lib\\site-packages\\docx\\blkcntnr.py',
   'PYMODULE'),
  ('docx.table',
   'c:\\users\\lenovo\\pycharmprojects\\docx_proc\\venv-win\\lib\\site-packages\\docx\\table.py',
   'PYMODULE'),
  ('docx.text.paragraph',
   'c:\\users\\lenovo\\pycharmprojects\\docx_proc\\venv-win\\lib\\site-packages\\docx\\text\\paragraph.py',
   'PYMODULE'),
  ('docx.text.run',
   'c:\\users\\lenovo\\pycharmprojects\\docx_proc\\venv-win\\lib\\site-packages\\docx\\text\\run.py',
   'PYMODULE'),
  ('docx.opc.parts.coreprops',
   'c:\\users\\lenovo\\pycharmprojects\\docx_proc\\venv-win\\lib\\site-packages\\docx\\opc\\parts\\coreprops.py',
   'PYMODULE'),
  ('docx.opc.parts',
   'c:\\users\\lenovo\\pycharmprojects\\docx_proc\\venv-win\\lib\\site-packages\\docx\\opc\\parts\\__init__.py',
   'PYMODULE'),
  ('docx.opc.coreprops',
   'c:\\users\\lenovo\\pycharmprojects\\docx_proc\\venv-win\\lib\\site-packages\\docx\\opc\\coreprops.py',
   'PYMODULE'),
  ('docx.opc.part',
   'c:\\users\\lenovo\\pycharmprojects\\docx_proc\\venv-win\\lib\\site-packages\\docx\\opc\\part.py',
   'PYMODULE'),
  ('docx.opc.shared',
   'c:\\users\\lenovo\\pycharmprojects\\docx_proc\\venv-win\\lib\\site-packages\\docx\\opc\\shared.py',
   'PYMODULE'),
  ('docx.opc.rel',
   'c:\\users\\lenovo\\pycharmprojects\\docx_proc\\venv-win\\lib\\site-packages\\docx\\opc\\rel.py',
   'PYMODULE'),
  ('docx.opc.oxml',
   'c:\\users\\lenovo\\pycharmprojects\\docx_proc\\venv-win\\lib\\site-packages\\docx\\opc\\oxml.py',
   'PYMODULE'),
  ('docx.opc.compat',
   'c:\\users\\lenovo\\pycharmprojects\\docx_proc\\venv-win\\lib\\site-packages\\docx\\opc\\compat.py',
   'PYMODULE'),
  ('docx.opc.constants',
   'c:\\users\\lenovo\\pycharmprojects\\docx_proc\\venv-win\\lib\\site-packages\\docx\\opc\\constants.py',
   'PYMODULE'),
  ('docx.api',
   'c:\\users\\lenovo\\pycharmprojects\\docx_proc\\venv-win\\lib\\site-packages\\docx\\api.py',
   'PYMODULE'),
  ('docx.package',
   'c:\\users\\lenovo\\pycharmprojects\\docx_proc\\venv-win\\lib\\site-packages\\docx\\package.py',
   'PYMODULE'),
  ('docx.opc.package',
   'c:\\users\\lenovo\\pycharmprojects\\docx_proc\\venv-win\\lib\\site-packages\\docx\\opc\\package.py',
   'PYMODULE'),
  ('docx.opc.pkgwriter',
   'c:\\users\\lenovo\\pycharmprojects\\docx_proc\\venv-win\\lib\\site-packages\\docx\\opc\\pkgwriter.py',
   'PYMODULE'),
  ('docx.opc.spec',
   'c:\\users\\lenovo\\pycharmprojects\\docx_proc\\venv-win\\lib\\site-packages\\docx\\opc\\spec.py',
   'PYMODULE'),
  ('docx.opc.phys_pkg',
   'c:\\users\\lenovo\\pycharmprojects\\docx_proc\\venv-win\\lib\\site-packages\\docx\\opc\\phys_pkg.py',
   'PYMODULE'),
  ('docx.opc.exceptions',
   'c:\\users\\lenovo\\pycharmprojects\\docx_proc\\venv-win\\lib\\site-packages\\docx\\opc\\exceptions.py',
   'PYMODULE'),
  ('docx.opc.pkgreader',
   'c:\\users\\lenovo\\pycharmprojects\\docx_proc\\venv-win\\lib\\site-packages\\docx\\opc\\pkgreader.py',
   'PYMODULE'),
  ('apply.apply',
   'c:\\users\\lenovo\\pycharmprojects\\docx_proc\\venv-win\\lib\\site-packages\\apply\\apply.py',
   'PYMODULE'),
  ('apply',
   'c:\\users\\lenovo\\pycharmprojects\\docx_proc\\venv-win\\lib\\site-packages\\apply\\__init__.py',
   'PYMODULE'),
  ('os',
   'C:\\Users\\Lenovo\\AppData\\Local\\Programs\\Python\\Python36\\lib\\os.py',
   'PYMODULE'),
  ('string',
   'C:\\Users\\Lenovo\\AppData\\Local\\Programs\\Python\\Python36\\lib\\string.py',
   'PYMODULE')])
